203 case_tag
POST / HTTP/1.1
Host: hostname.com
User-Agent: tank
Accept: */*
Connection: Close
Content-Length: 94

{"country": "be", "lang": "de", "campaigns": ["c1", "c2"], "showcase": "us", "platform": null}